…
ny_noaa_tidy = ny_noaa %>% 
  janitor::clean_names() %>% 
  mutate(
    tmax = as.numeric(tmax),
    tmin = as.numeric(tmin),
    tmax = tmax/10,
    tmin = tmin/10
  ) %>% 
  separate(date, into = c("year","month","day"))

ny_noaa_tidy %>% 
  count(snow)
```

    ## # A tibble: 282 × 2
    ##     snow       n
    ##    <int>   <int>
    ##  1   -13       1
    ##  2     0 2008508
    ##  3     3    8790
    ##  4     5    9748
    ##  5     8    9962
    ##  6    10    5106
    ##  7    13   23095
    ##  8    15    3672
    ##  9    18    3226
    ## 10    20    4797
    ## # … with 272 more rows
…
